
{
    "region" : "us-east-1",
    "configuration" : "Release",
    "framework"     : "netcoreapp3.1",
    "self-contained" : false,
    "application"    : "LeysiSchedulers",
    "environment"    : "LeysiSchedulers-dev",
    "enable-xray"    : false,
    "enhanced-health-type" : "basic",
    "additional-options"   : "",
    "solution-stack"       : "64bit Amazon Linux 2 v2.2.4 running .NET Core",
    "environment-type"     : "SingleInstance",
    "cname"                : "leysischedulers-dev",
    "instance-type"        : "t3a.medium",
    "key-pair"             : "pollwell",
    "instance-profile"     : "aws-elasticbeanstalk-ec2-role",
    "service-role"         : "aws-elasticbeanstalk-service-role",
    "proxy-server"         : "nginx"
}